{
  "__inputs": [],
  "__requires": [],
  "annotations": {
    "list": [
      {
        "builtIn": 1,
        "datasource": "-- Grafana --",
        "enable": false,
        "hide": false,
        "iconColor": "#96D98D",
        "name": "deploy",
        "showIn": 0,
        "tags": [
          "deploy",
          "$environment"
        ],
        "type": "tags"
      },
      {
        "builtIn": 1,
        "datasource": "-- Grafana --",
        "enable": false,
        "hide": false,
        "iconColor": "#FFEE52",
        "name": "canary-deploy",
        "showIn": 0,
        "tags": [
          "deploy",
          "${environment}-cny"
        ],
        "type": "tags"
      },
      {
        "builtIn": 1,
        "datasource": "-- Grafana --",
        "enable": false,
        "hide": false,
        "iconColor": "#CA95E5",
        "name": "feature-flags",
        "showIn": 0,
        "tags": [
          "feature-flag",
          "${environment}"
        ],
        "type": "tags"
      }
    ]
  },
  "editable": false,
  "gnetId": null,
  "graphTooltip": 1,
  "hideControls": false,
  "id": null,
  "links": [
    {
      "asDropdown": true,
      "icon": "external link",
      "includeVars": false,
      "keepTime": true,
      "tags": "",
      "targetBlank": false,
      "title": "Platform Triage",
      "type": "link",
      "url": "https://dashboards.gitlab.net/d/general-triage/platform-triage?orgId=1"
    },
    {
      "asDropdown": true,
      "icon": "external link",
      "includeVars": true,
      "keepTime": true,
      "tags": [
        "managed",
        "service overview"
      ],
      "targetBlank": false,
      "title": "Service Overview Dashboards",
      "type": "dashboards",
      "url": ""
    },
    {
      "asDropdown": true,
      "icon": "dashboard",
      "includeVars": true,
      "keepTime": true,
      "tags": "type:consul",
      "targetBlank": false,
      "title": "consul Detail",
      "type": "dashboards",
      "url": ""
    },
    {
      "asDropdown": true,
      "icon": "external link",
      "includeVars": true,
      "keepTime": true,
      "tags": [
        "managed",
        "type:consul",
        "kube detail"
      ],
      "targetBlank": false,
      "title": "☸️ consul Kubernetes Detail",
      "type": "dashboards",
      "url": ""
    }
  ],
  "panels": [
    {
      "collapse": false,
      "collapsed": false,
      "gridPos": {
        "h": 1,
        "w": 24,
        "x": 0,
        "y": 0
      },
      "id": 2,
      "panels": [],
      "repeat": null,
      "repeatIteration": null,
      "repeatRowId": null,
      "showTitle": true,
      "title": "🌡️ Aggregated Service Level Indicators (𝙎𝙇𝙄𝙨)",
      "titleSize": "h6",
      "type": "row"
    },
    {
      "bars": false,
      "dashLength": 10,
      "dashes": false,
      "datasource": "$PROMETHEUS_DS",
      "decimals": 2,
      "description": "Saturation is a measure of what ratio of a finite resource is currently being utilized. Lower is better.",
      "fill": 0,
      "fillGradient": 0,
      "gridPos": {
        "h": 8,
        "w": 24,
        "x": 0,
        "y": 1
      },
      "id": 1217942947,
      "legend": {
        "alignAsTable": true,
        "avg": true,
        "current": true,
        "hideEmpty": true,
        "max": true,
        "min": true,
        "rightSide": false,
        "show": false,
        "total": false,
        "values": true
      },
      "lines": true,
      "linewidth": 1,
      "nullPointMode": "null",
      "percentage": false,
      "pointradius": 5,
      "points": false,
      "renderer": "flot",
      "spaceLength": 10,
      "stableId": "service-utilization",
      "stack": false,
      "steppedLine": false,
      "targets": [
        {
          "expr": "max(\n  max_over_time(\n    gitlab_component_saturation:ratio{type=\"consul\"}[$__interval]\n  )\n) by (component)\n",
          "format": "time_series",
          "interval": "1m",
          "intervalFactor": 3,
          "legendFormat": "{{ component }} component",
          "refId": "A"
        }
      ],
      "title": "Saturation",
      "tooltip": {
        "shared": true,
        "sort": 2,
        "value_type": "individual"
      },
      "type": "graph",
      "xaxis": {
        "mode": "time",
        "show": true
      },
      "yaxes": [
        {
          "format": "percentunit",
          "label": "",
          "logBase": 1,
          "max": 1,
          "show": true
        },
        {
          "format": "short",
          "logBase": 1,
          "max": 1,
          "min": 0,
          "show": false
        }
      ]
    },
    {
      "collapse": false,
      "collapsed": false,
      "gridPos": {
        "h": 1,
        "w": 24,
        "x": 0,
        "y": 20
      },
      "id": 4,
      "panels": [],
      "repeat": null,
      "repeatIteration": null,
      "repeatRowId": null,
      "showTitle": true,
      "title": "🔬 Service Level Indicators",
      "titleSize": "h6",
      "type": "row"
    },
    {
      "collapse": true,
      "collapsed": true,
      "gridPos": {
        "h": 1,
        "w": 24,
        "x": 0,
        "y": 500
      },
      "id": 5,
      "panels": [
        {
          "aliasColors": {},
          "bars": false,
          "dashLength": 10,
          "dashes": false,
          "datasource": "$PROMETHEUS_DS",
          "decimals": 2,
          "description": "This resource measures average CPU utilization across an all cores in a service fleet.\nIf it is becoming saturated, it may indicate that the fleet needs\nhorizontal or vertical scaling.\n Lower is better.",
          "fill": 0,
          "fillGradient": 0,
          "gridPos": {
            "h": 10,
            "w": 12,
            "x": 0,
            "y": 0
          },
          "id": 1465724101,
          "legend": {
            "alignAsTable": true,
            "avg": true,
            "current": true,
            "hideEmpty": true,
            "max": true,
            "min": true,
            "rightSide": false,
            "show": true,
            "sideWidth": null,
            "total": false,
            "values": true
          },
          "lines": true,
          "linewidth": 1,
          "links": [],
          "nullPointMode": "null",
          "percentage": false,
          "pointradius": 5,
          "points": false,
          "renderer": "flot",
          "repeat": null,
          "seriesOverrides": [
            {
              "alias": "/^Soft SLO/",
              "color": "#FF4500",
              "dashLength": 4,
              "dashes": true,
              "legend": true,
              "lines": true,
              "linewidth": 2,
              "nullPointMode": "connected",
              "spaceLength": 10,
              "zindex": -2
            },
            {
              "alias": "/^Hard SLO/",
              "color": "#F2495C",
              "dashLength": 4,
              "dashes": true,
              "legend": true,
              "lines": true,
              "linewidth": 4,
              "nullPointMode": "connected",
              "spaceLength": 4,
              "zindex": -2
            },
            {
              "alias": "/aggregated /",
              "color": "#E7D551",
              "linewidth": 2,
              "zindex": 3
            },
            {
              "alias": "/^95th quantile for week/",
              "color": "#37872D",
              "dashLength": 4,
              "dashes": true,
              "legend": true,
              "lines": true,
              "linewidth": 1,
              "nullPointMode": "connected",
              "spaceLength": 10,
              "zindex": -2
            },
            {
              "alias": "/^99th quantile for week/",
              "color": "#56A64B",
              "dashLength": 4,
              "dashes": true,
              "legend": true,
              "lines": true,
              "linewidth": 2,
              "nullPointMode": "connected",
              "spaceLength": 4,
              "zindex": -2
            }
          ],
          "spaceLength": 10,
          "stableId": "saturation-cpu",
          "stack": false,
          "steppedLine": false,
          "targets": [
            {
              "expr": "clamp_min(\n  clamp_max(\n    max by(type) (\n  clamp_min(\n    clamp_max(\n      1 - avg by (type) (\n        rate(node_cpu_seconds_total{mode=\"idle\", type=\"consul\"}[5m])\n      )\n      ,\n      1)\n  ,\n  0)\n)\n\n  ,1)\n,0)\n",
              "format": "time_series",
              "interval": "1m",
              "intervalFactor": 3,
              "legendFormat": "{{ type }}",
              "refId": "A"
            },
            {
              "expr": "clamp_min(\n  clamp_max(\n    max(\n      max_over_time(gitlab_component_saturation:ratio{type=\"consul\", component=\"cpu\"}[$__interval])\n    ) by (component)\n  ,1)\n,0)\n",
              "format": "time_series",
              "interval": "1m",
              "intervalFactor": 3,
              "legendFormat": "aggregated {{ component }}",
              "refId": "B"
            },
            {
              "expr": "gitlab_component_saturation:ratio_quantile95_1w{type=\"consul\", component=\"cpu\"}\n",
              "format": "time_series",
              "interval": "1m",
              "intervalFactor": 3,
              "legendFormat": "95th quantile for week {{ component }}",
              "refId": "C"
            },
            {
              "expr": "gitlab_component_saturation:ratio_quantile99_1w{type=\"consul\", component=\"cpu\"}\n",
              "format": "time_series",
              "interval": "1m",
              "intervalFactor": 3,
              "legendFormat": "99th quantile for week {{ component }}",
              "refId": "D"
            },
            {
              "expr": "avg(slo:max:soft:gitlab_component_saturation:ratio{component=\"cpu\"}) by (component)\n",
              "format": "time_series",
              "interval": "1m",
              "intervalFactor": 3,
              "legendFormat": "Soft SLO: {{ component }}",
              "refId": "E"
            },
            {
              "expr": "avg(slo:max:hard:gitlab_component_saturation:ratio{component=\"cpu\"}) by (component)\n",
              "format": "time_series",
              "interval": "1m",
              "intervalFactor": 3,
              "legendFormat": "Hard SLO: {{ component }}",
              "refId": "F"
            }
          ],
          "thresholds": [],
          "timeFrom": null,
          "timeShift": null,
          "title": "cpu component saturation: Average Service CPU Utilization",
          "tooltip": {
            "shared": true,
            "sort": 2,
            "value_type": "individual"
          },
          "type": "graph",
          "xaxis": {
            "buckets": null,
            "mode": "time",
            "name": null,
            "show": true,
            "values": []
          },
          "yaxes": [
            {
              "format": "percentunit",
              "label": "Saturation %",
              "logBase": 1,
              "max": 1,
              "min": null,
              "show": true
            },
            {
              "format": "short",
              "label": null,
              "logBase": 1,
              "max": 1,
              "min": 0,
              "show": false
            }
          ]
        },
        {
          "aliasColors": {},
          "bars": false,
          "dashLength": 10,
          "dashes": false,
          "datasource": "$PROMETHEUS_DS",
          "decimals": 2,
          "description": "Disk inode utilization per device per node.\n\nIf this is too high, its possible that a directory is filling up with\nfiles. Consider logging in an checking temp directories for large numbers\nof files\n Lower is better.",
          "fill": 0,
          "fillGradient": 0,
          "gridPos": {
            "h": 10,
            "w": 12,
            "x": 12,
            "y": 0
          },
          "id": 39965907,
          "legend": {
            "alignAsTable": true,
            "avg": true,
            "current": true,
            "hideEmpty": true,
            "max": true,
            "min": true,
            "rightSide": false,
            "show": true,
            "sideWidth": null,
            "total": false,
            "values": true
          },
          "lines": true,
          "linewidth": 1,
          "links": [],
          "nullPointMode": "null",
          "percentage": false,
          "pointradius": 5,
          "points": false,
          "renderer": "flot",
          "repeat": null,
          "seriesOverrides": [
            {
              "alias": "/^Soft SLO/",
              "color": "#FF4500",
              "dashLength": 4,
              "dashes": true,
              "legend": true,
              "lines": true,
              "linewidth": 2,
              "nullPointMode": "connected",
              "spaceLength": 10,
              "zindex": -2
            },
            {
              "alias": "/^Hard SLO/",
              "color": "#F2495C",
              "dashLength": 4,
              "dashes": true,
              "legend": true,
              "lines": true,
              "linewidth": 4,
              "nullPointMode": "connected",
              "spaceLength": 4,
              "zindex": -2
            },
            {
              "alias": "/aggregated /",
              "color": "#E7D551",
              "linewidth": 2,
              "zindex": 3
            },
            {
              "alias": "/^95th quantile for week/",
              "color": "#37872D",
              "dashLength": 4,
              "dashes": true,
              "legend": true,
              "lines": true,
              "linewidth": 1,
              "nullPointMode": "connected",
              "spaceLength": 10,
              "zindex": -2
            },
            {
              "alias": "/^99th quantile for week/",
              "color": "#56A64B",
              "dashLength": 4,
              "dashes": true,
              "legend": true,
              "lines": true,
              "linewidth": 2,
              "nullPointMode": "connected",
              "spaceLength": 4,
              "zindex": -2
            }
          ],
          "spaceLength": 10,
          "stableId": "saturation-disk_inodes",
          "stack": false,
          "steppedLine": false,
          "targets": [
            {
              "expr": "clamp_min(\n  clamp_max(\n    max by(type, fqdn, device) (\n  clamp_min(\n    clamp_max(\n      1 - (\n        node_filesystem_files_free{fstype=~\"(ext.|xfs)\", type=\"consul\"}\n        /\n        node_filesystem_files{fstype=~\"(ext.|xfs)\", type=\"consul\"}\n      )\n      ,\n      1)\n  ,\n  0)\n)\n\n  ,1)\n,0)\n",
              "format": "time_series",
              "interval": "1m",
              "intervalFactor": 3,
              "legendFormat": "{{ fqdn }} {{ device }}",
              "refId": "A"
            },
            {
              "expr": "clamp_min(\n  clamp_max(\n    max(\n      max_over_time(gitlab_component_saturation:ratio{type=\"consul\", component=\"disk_inodes\"}[$__interval])\n    ) by (component)\n  ,1)\n,0)\n",
              "format": "time_series",
              "interval": "1m",
              "intervalFactor": 3,
              "legendFormat": "aggregated {{ component }}",
              "refId": "B"
            },
            {
              "expr": "gitlab_component_saturation:ratio_quantile95_1w{type=\"consul\", component=\"disk_inodes\"}\n",
              "format": "time_series",
              "interval": "1m",
              "intervalFactor": 3,
              "legendFormat": "95th quantile for week {{ component }}",
              "refId": "C"
            },
            {
              "expr": "gitlab_component_saturation:ratio_quantile99_1w{type=\"consul\", component=\"disk_inodes\"}\n",
              "format": "time_series",
              "interval": "1m",
              "intervalFactor": 3,
              "legendFormat": "99th quantile for week {{ component }}",
              "refId": "D"
            },
            {
              "expr": "avg(slo:max:soft:gitlab_component_saturation:ratio{component=\"disk_inodes\"}) by (component)\n",
              "format": "time_series",
              "interval": "1m",
              "intervalFactor": 3,
              "legendFormat": "Soft SLO: {{ component }}",
              "refId": "E"
            },
            {
              "expr": "avg(slo:max:hard:gitlab_component_saturation:ratio{component=\"disk_inodes\"}) by (component)\n",
              "format": "time_series",
              "interval": "1m",
              "intervalFactor": 3,
              "legendFormat": "Hard SLO: {{ component }}",
              "refId": "F"
            }
          ],
          "thresholds": [],
          "timeFrom": null,
          "timeShift": null,
          "title": "disk_inodes component saturation: Disk inode Utilization per Device per Node",
          "tooltip": {
            "shared": true,
            "sort": 2,
            "value_type": "individual"
          },
          "type": "graph",
          "xaxis": {
            "buckets": null,
            "mode": "time",
            "name": null,
            "show": true,
            "values": []
          },
          "yaxes": [
            {
              "format": "percentunit",
              "label": "Saturation %",
              "logBase": 1,
              "max": 1,
              "min": null,
              "show": true
            },
            {
              "format": "short",
              "label": null,
              "logBase": 1,
              "max": 1,
              "min": 0,
              "show": false
            }
          ]
        },
        {
          "aliasColors": {},
          "bars": false,
          "dashLength": 10,
          "dashes": false,
          "datasource": "$PROMETHEUS_DS",
          "decimals": 2,
          "description": "Disk space utilization per device per node.\n Lower is better.",
          "fill": 0,
          "fillGradient": 0,
          "gridPos": {
            "h": 10,
            "w": 12,
            "x": 0,
            "y": 10
          },
          "id": 2661375984,
          "legend": {
            "alignAsTable": true,
            "avg": true,
            "current": true,
            "hideEmpty": true,
            "max": true,
            "min": true,
            "rightSide": false,
            "show": true,
            "sideWidth": null,
            "total": false,
            "values": true
          },
          "lines": true,
          "linewidth": 1,
          "links": [],
          "nullPointMode": "null",
          "percentage": false,
          "pointradius": 5,
          "points": false,
          "renderer": "flot",
          "repeat": null,
          "seriesOverrides": [
            {
              "alias": "/^Soft SLO/",
              "color": "#FF4500",
              "dashLength": 4,
              "dashes": true,
              "legend": true,
              "lines": true,
              "linewidth": 2,
              "nullPointMode": "connected",
              "spaceLength": 10,
              "zindex": -2
            },
            {
              "alias": "/^Hard SLO/",
              "color": "#F2495C",
              "dashLength": 4,
              "dashes": true,
              "legend": true,
              "lines": true,
              "linewidth": 4,
              "nullPointMode": "connected",
              "spaceLength": 4,
              "zindex": -2
            },
            {
              "alias": "/aggregated /",
              "color": "#E7D551",
              "linewidth": 2,
              "zindex": 3
            },
            {
              "alias": "/^95th quantile for week/",
              "color": "#37872D",
              "dashLength": 4,
              "dashes": true,
              "legend": true,
              "lines": true,
              "linewidth": 1,
              "nullPointMode": "connected",
              "spaceLength": 10,
              "zindex": -2
            },
            {
              "alias": "/^99th quantile for week/",
              "color": "#56A64B",
              "dashLength": 4,
              "dashes": true,
              "legend": true,
              "lines": true,
              "linewidth": 2,
              "nullPointMode": "connected",
              "spaceLength": 4,
              "zindex": -2
            }
          ],
          "spaceLength": 10,
          "stableId": "saturation-disk_space",
          "stack": false,
          "steppedLine": false,
          "targets": [
            {
              "expr": "clamp_min(\n  clamp_max(\n    max by(type, node, device) (\n  clamp_min(\n    clamp_max(\n      (\n        1 - node_filesystem_avail_bytes{fstype=~\"ext.|xfs\", type=\"consul\"} / node_filesystem_size_bytes{fstype=~\"ext.|xfs\", type=\"consul\"}\n      )\n      ,\n      1)\n  ,\n  0)\n)\n\n  ,1)\n,0)\n",
              "format": "time_series",
              "interval": "1m",
              "intervalFactor": 3,
              "legendFormat": "{{ node }} {{ device }}",
              "refId": "A"
            },
            {
              "expr": "clamp_min(\n  clamp_max(\n    max(\n      max_over_time(gitlab_component_saturation:ratio{type=\"consul\", component=\"disk_space\"}[$__interval])\n    ) by (component)\n  ,1)\n,0)\n",
              "format": "time_series",
              "interval": "1m",
              "intervalFactor": 3,
              "legendFormat": "aggregated {{ component }}",
              "refId": "B"
            },
            {
              "expr": "gitlab_component_saturation:ratio_quantile95_1w{type=\"consul\", component=\"disk_space\"}\n",
              "format": "time_series",
              "interval": "1m",
              "intervalFactor": 3,
              "legendFormat": "95th quantile for week {{ component }}",
              "refId": "C"
            },
            {
              "expr": "gitlab_component_saturation:ratio_quantile99_1w{type=\"consul\", component=\"disk_space\"}\n",
              "format": "time_series",
              "interval": "1m",
              "intervalFactor": 3,
              "legendFormat": "99th quantile for week {{ component }}",
              "refId": "D"
            },
            {
              "expr": "avg(slo:max:soft:gitlab_component_saturation:ratio{component=\"disk_space\"}) by (component)\n",
              "format": "time_series",
              "interval": "1m",
              "intervalFactor": 3,
              "legendFormat": "Soft SLO: {{ component }}",
              "refId": "E"
            },
            {
              "expr": "avg(slo:max:hard:gitlab_component_saturation:ratio{component=\"disk_space\"}) by (component)\n",
              "format": "time_series",
              "interval": "1m",
              "intervalFactor": 3,
              "legendFormat": "Hard SLO: {{ component }}",
              "refId": "F"
            }
          ],
          "thresholds": [],
          "timeFrom": null,
          "timeShift": null,
          "title": "disk_space component saturation: Disk Space Utilization per Device per Node",
          "tooltip": {
            "shared": true,
            "sort": 2,
            "value_type": "individual"
          },
          "type": "graph",
          "xaxis": {
            "buckets": null,
            "mode": "time",
            "name": null,
            "show": true,
            "values": []
          },
          "yaxes": [
            {
              "format": "percentunit",
              "label": "Saturation %",
              "logBase": 1,
              "max": 1,
              "min": null,
              "show": true
            },
            {
              "format": "short",
              "label": null,
              "logBase": 1,
              "max": 1,
              "min": 0,
              "show": false
            }
          ]
        },
        {
          "aliasColors": {},
          "bars": false,
          "dashLength": 10,
          "dashes": false,
          "datasource": "$PROMETHEUS_DS",
          "decimals": 2,
          "description": "Kubernetes containers are allocated a share of CPU. When this is exhausted, the container may be thottled.\n Lower is better.",
          "fill": 0,
          "fillGradient": 0,
          "gridPos": {
            "h": 10,
            "w": 12,
            "x": 12,
            "y": 10
          },
          "id": 2713861591,
          "legend": {
            "alignAsTable": true,
            "avg": true,
            "current": true,
            "hideEmpty": true,
            "max": true,
            "min": true,
            "rightSide": false,
            "show": true,
            "sideWidth": null,
            "total": false,
            "values": true
          },
          "lines": true,
          "linewidth": 1,
          "links": [],
          "nullPointMode": "null",
          "percentage": false,
          "pointradius": 5,
          "points": false,
          "renderer": "flot",
          "repeat": null,
          "seriesOverrides": [
            {
              "alias": "/^Soft SLO/",
              "color": "#FF4500",
              "dashLength": 4,
              "dashes": true,
              "legend": true,
              "lines": true,
              "linewidth": 2,
              "nullPointMode": "connected",
              "spaceLength": 10,
              "zindex": -2
            },
            {
              "alias": "/^Hard SLO/",
              "color": "#F2495C",
              "dashLength": 4,
              "dashes": true,
              "legend": true,
              "lines": true,
              "linewidth": 4,
              "nullPointMode": "connected",
              "spaceLength": 4,
              "zindex": -2
            },
            {
              "alias": "/aggregated /",
              "color": "#E7D551",
              "linewidth": 2,
              "zindex": 3
            },
            {
              "alias": "/^95th quantile for week/",
              "color": "#37872D",
              "dashLength": 4,
              "dashes": true,
              "legend": true,
              "lines": true,
              "linewidth": 1,
              "nullPointMode": "connected",
              "spaceLength": 10,
              "zindex": -2
            },
            {
              "alias": "/^99th quantile for week/",
              "color": "#56A64B",
              "dashLength": 4,
              "dashes": true,
              "legend": true,
              "lines": true,
              "linewidth": 2,
              "nullPointMode": "connected",
              "spaceLength": 4,
              "zindex": -2
            }
          ],
          "spaceLength": 10,
          "stableId": "saturation-kube_container_cpu",
          "stack": false,
          "steppedLine": false,
          "targets": [
            {
              "expr": "clamp_min(\n  clamp_max(\n    max by(type, pod, container) (\n  clamp_min(\n    clamp_max(\n      sum by (type, pod, container) (\n        rate(container_cpu_usage_seconds_total:labeled{container!=\"\", container!=\"POD\", type=\"consul\"}[5m])\n      )\n      /\n      sum by(type, pod, container) (\n        container_spec_cpu_quota:labeled{container!=\"\", container!=\"POD\", type=\"consul\"}\n        /\n        container_spec_cpu_period:labeled{container!=\"\", container!=\"POD\", type=\"consul\"}\n      )\n      ,\n      1)\n  ,\n  0)\n)\n\n  ,1)\n,0)\n",
              "format": "time_series",
              "interval": "1m",
              "intervalFactor": 3,
              "legendFormat": "{{ pod }} {{ container }}",
              "refId": "A"
            },
            {
              "expr": "clamp_min(\n  clamp_max(\n    max(\n      max_over_time(gitlab_component_saturation:ratio{type=\"consul\", component=\"kube_container_cpu\"}[$__interval])\n    ) by (component)\n  ,1)\n,0)\n",
              "format": "time_series",
              "interval": "1m",
              "intervalFactor": 3,
              "legendFormat": "aggregated {{ component }}",
              "refId": "B"
            },
            {
              "expr": "gitlab_component_saturation:ratio_quantile95_1w{type=\"consul\", component=\"kube_container_cpu\"}\n",
              "format": "time_series",
              "interval": "1m",
              "intervalFactor": 3,
              "legendFormat": "95th quantile for week {{ component }}",
              "refId": "C"
            },
            {
              "expr": "gitlab_component_saturation:ratio_quantile99_1w{type=\"consul\", component=\"kube_container_cpu\"}\n",
              "format": "time_series",
              "interval": "1m",
              "intervalFactor": 3,
              "legendFormat": "99th quantile for week {{ component }}",
              "refId": "D"
            },
            {
              "expr": "avg(slo:max:soft:gitlab_component_saturation:ratio{component=\"kube_container_cpu\"}) by (component)\n",
              "format": "time_series",
              "interval": "1m",
              "intervalFactor": 3,
              "legendFormat": "Soft SLO: {{ component }}",
              "refId": "E"
            },
            {
              "expr": "avg(slo:max:hard:gitlab_component_saturation:ratio{component=\"kube_container_cpu\"}) by (component)\n",
              "format": "time_series",
              "interval": "1m",
              "intervalFactor": 3,
              "legendFormat": "Hard SLO: {{ component }}",
              "refId": "F"
            }
          ],
          "thresholds": [],
          "timeFrom": null,
          "timeShift": null,
          "title": "kube_container_cpu component saturation: Kube Container CPU Utilization",
          "tooltip": {
            "shared": true,
            "sort": 2,
            "value_type": "individual"
          },
          "type": "graph",
          "xaxis": {
            "buckets": null,
            "mode": "time",
            "name": null,
            "show": true,
            "values": []
          },
          "yaxes": [
            {
              "format": "percentunit",
              "label": "Saturation %",
              "logBase": 1,
              "max": 1,
              "min": null,
              "show": true
            },
            {
              "format": "short",
              "label": null,
              "logBase": 1,
              "max": 1,
              "min": 0,
              "show": false
            }
          ]
        },
        {
          "aliasColors": {},
          "bars": false,
          "dashLength": 10,
          "dashes": false,
          "datasource": "$PROMETHEUS_DS",
          "decimals": 2,
          "description": "Records the total memory utilization for containers for this service, as a percentage of\nthe memory limit as configured through Kubernetes.\n Lower is better.",
          "fill": 0,
          "fillGradient": 0,
          "gridPos": {
            "h": 10,
            "w": 12,
            "x": 0,
            "y": 20
          },
          "id": 172578411,
          "legend": {
            "alignAsTable": true,
            "avg": true,
            "current": true,
            "hideEmpty": true,
            "max": true,
            "min": true,
            "rightSide": false,
            "show": true,
            "sideWidth": null,
            "total": false,
            "values": true
          },
          "lines": true,
          "linewidth": 1,
          "links": [],
          "nullPointMode": "null",
          "percentage": false,
          "pointradius": 5,
          "points": false,
          "renderer": "flot",
          "repeat": null,
          "seriesOverrides": [
            {
              "alias": "/^Soft SLO/",
              "color": "#FF4500",
              "dashLength": 4,
              "dashes": true,
              "legend": true,
              "lines": true,
              "linewidth": 2,
              "nullPointMode": "connected",
              "spaceLength": 10,
              "zindex": -2
            },
            {
              "alias": "/^Hard SLO/",
              "color": "#F2495C",
              "dashLength": 4,
              "dashes": true,
              "legend": true,
              "lines": true,
              "linewidth": 4,
              "nullPointMode": "connected",
              "spaceLength": 4,
              "zindex": -2
            },
            {
              "alias": "/aggregated /",
              "color": "#E7D551",
              "linewidth": 2,
              "zindex": 3
            },
            {
              "alias": "/^95th quantile for week/",
              "color": "#37872D",
              "dashLength": 4,
              "dashes": true,
              "legend": true,
              "lines": true,
              "linewidth": 1,
              "nullPointMode": "connected",
              "spaceLength": 10,
              "zindex": -2
            },
            {
              "alias": "/^99th quantile for week/",
              "color": "#56A64B",
              "dashLength": 4,
              "dashes": true,
              "legend": true,
              "lines": true,
              "linewidth": 2,
              "nullPointMode": "connected",
              "spaceLength": 4,
              "zindex": -2
            }
          ],
          "spaceLength": 10,
          "stableId": "saturation-kube_container_memory",
          "stack": false,
          "steppedLine": false,
          "targets": [
            {
              "expr": "clamp_min(\n  clamp_max(\n    max by(type) (\n  clamp_min(\n    clamp_max(\n      container_memory_working_set_bytes:labeled{container!=\"\", container!=\"POD\", type=\"consul\"}\n      /\n      (container_spec_memory_limit_bytes:labeled{container!=\"\", container!=\"POD\", type=\"consul\"} \u003e 0)\n      ,\n      1)\n  ,\n  0)\n)\n\n  ,1)\n,0)\n",
              "format": "time_series",
              "interval": "1m",
              "intervalFactor": 3,
              "legendFormat": "{{ type }}",
              "refId": "A"
            },
            {
              "expr": "clamp_min(\n  clamp_max(\n    max(\n      max_over_time(gitlab_component_saturation:ratio{type=\"consul\", component=\"kube_container_memory\"}[$__interval])\n    ) by (component)\n  ,1)\n,0)\n",
              "format": "time_series",
              "interval": "1m",
              "intervalFactor": 3,
              "legendFormat": "aggregated {{ component }}",
              "refId": "B"
            },
            {
              "expr": "gitlab_component_saturation:ratio_quantile95_1w{type=\"consul\", component=\"kube_container_memory\"}\n",
              "format": "time_series",
              "interval": "1m",
              "intervalFactor": 3,
              "legendFormat": "95th quantile for week {{ component }}",
              "refId": "C"
            },
            {
              "expr": "gitlab_component_saturation:ratio_quantile99_1w{type=\"consul\", component=\"kube_container_memory\"}\n",
              "format": "time_series",
              "interval": "1m",
              "intervalFactor": 3,
              "legendFormat": "99th quantile for week {{ component }}",
              "refId": "D"
            },
            {
              "expr": "avg(slo:max:soft:gitlab_component_saturation:ratio{component=\"kube_container_memory\"}) by (component)\n",
              "format": "time_series",
              "interval": "1m",
              "intervalFactor": 3,
              "legendFormat": "Soft SLO: {{ component }}",
              "refId": "E"
            },
            {
              "expr": "avg(slo:max:hard:gitlab_component_saturation:ratio{component=\"kube_container_memory\"}) by (component)\n",
              "format": "time_series",
              "interval": "1m",
              "intervalFactor": 3,
              "legendFormat": "Hard SLO: {{ component }}",
              "refId": "F"
            }
          ],
          "thresholds": [],
          "timeFrom": null,
          "timeShift": null,
          "title": "kube_container_memory component saturation: Kube Container Memory Utilization",
          "tooltip": {
            "shared": true,
            "sort": 2,
            "value_type": "individual"
          },
          "type": "graph",
          "xaxis": {
            "buckets": null,
            "mode": "time",
            "name": null,
            "show": true,
            "values": []
          },
          "yaxes": [
            {
              "format": "percentunit",
              "label": "Saturation %",
              "logBase": 1,
              "max": 1,
              "min": null,
              "show": true
            },
            {
              "format": "short",
              "label": null,
              "logBase": 1,
              "max": 1,
              "min": 0,
              "show": false
            }
          ]
        },
        {
          "aliasColors": {},
          "bars": false,
          "dashLength": 10,
          "dashes": false,
          "datasource": "$PROMETHEUS_DS",
          "decimals": 2,
          "description": "Memory utilization per device per node.\n Lower is better.",
          "fill": 0,
          "fillGradient": 0,
          "gridPos": {
            "h": 10,
            "w": 12,
            "x": 12,
            "y": 20
          },
          "id": 1955556769,
          "legend": {
            "alignAsTable": true,
            "avg": true,
            "current": true,
            "hideEmpty": true,
            "max": true,
            "min": true,
            "rightSide": false,
            "show": true,
            "sideWidth": null,
            "total": false,
            "values": true
          },
          "lines": true,
          "linewidth": 1,
          "links": [],
          "nullPointMode": "null",
          "percentage": false,
          "pointradius": 5,
          "points": false,
          "renderer": "flot",
          "repeat": null,
          "seriesOverrides": [
            {
              "alias": "/^Soft SLO/",
              "color": "#FF4500",
              "dashLength": 4,
              "dashes": true,
              "legend": true,
              "lines": true,
              "linewidth": 2,
              "nullPointMode": "connected",
              "spaceLength": 10,
              "zindex": -2
            },
            {
              "alias": "/^Hard SLO/",
              "color": "#F2495C",
              "dashLength": 4,
              "dashes": true,
              "legend": true,
              "lines": true,
              "linewidth": 4,
              "nullPointMode": "connected",
              "spaceLength": 4,
              "zindex": -2
            },
            {
              "alias": "/aggregated /",
              "color": "#E7D551",
              "linewidth": 2,
              "zindex": 3
            },
            {
              "alias": "/^95th quantile for week/",
              "color": "#37872D",
              "dashLength": 4,
              "dashes": true,
              "legend": true,
              "lines": true,
              "linewidth": 1,
              "nullPointMode": "connected",
              "spaceLength": 10,
              "zindex": -2
            },
            {
              "alias": "/^99th quantile for week/",
              "color": "#56A64B",
              "dashLength": 4,
              "dashes": true,
              "legend": true,
              "lines": true,
              "linewidth": 2,
              "nullPointMode": "connected",
              "spaceLength": 4,
              "zindex": -2
            }
          ],
          "spaceLength": 10,
          "stableId": "saturation-memory",
          "stack": false,
          "steppedLine": false,
          "targets": [
            {
              "expr": "clamp_min(\n  clamp_max(\n    max by(type, node) (\n  clamp_min(\n    clamp_max(\n      instance:node_memory_utilization:ratio{type=\"consul\"} or instance:node_memory_utilisation:ratio{type=\"consul\"}\n      ,\n      1)\n  ,\n  0)\n)\n\n  ,1)\n,0)\n",
              "format": "time_series",
              "interval": "1m",
              "intervalFactor": 3,
              "legendFormat": "{{ node }}",
              "refId": "A"
            },
            {
              "expr": "clamp_min(\n  clamp_max(\n    max(\n      max_over_time(gitlab_component_saturation:ratio{type=\"consul\", component=\"memory\"}[$__interval])\n    ) by (component)\n  ,1)\n,0)\n",
              "format": "time_series",
              "interval": "1m",
              "intervalFactor": 3,
              "legendFormat": "aggregated {{ component }}",
              "refId": "B"
            },
            {
              "expr": "gitlab_component_saturation:ratio_quantile95_1w{type=\"consul\", component=\"memory\"}\n",
              "format": "time_series",
              "interval": "1m",
              "intervalFactor": 3,
              "legendFormat": "95th quantile for week {{ component }}",
              "refId": "C"
            },
            {
              "expr": "gitlab_component_saturation:ratio_quantile99_1w{type=\"consul\", component=\"memory\"}\n",
              "format": "time_series",
              "interval": "1m",
              "intervalFactor": 3,
              "legendFormat": "99th quantile for week {{ component }}",
              "refId": "D"
            },
            {
              "expr": "avg(slo:max:soft:gitlab_component_saturation:ratio{component=\"memory\"}) by (component)\n",
              "format": "time_series",
              "interval": "1m",
              "intervalFactor": 3,
              "legendFormat": "Soft SLO: {{ component }}",
              "refId": "E"
            },
            {
              "expr": "avg(slo:max:hard:gitlab_component_saturation:ratio{component=\"memory\"}) by (component)\n",
              "format": "time_series",
              "interval": "1m",
              "intervalFactor": 3,
              "legendFormat": "Hard SLO: {{ component }}",
              "refId": "F"
            }
          ],
          "thresholds": [],
          "timeFrom": null,
          "timeShift": null,
          "title": "memory component saturation: Memory Utilization per Node",
          "tooltip": {
            "shared": true,
            "sort": 2,
            "value_type": "individual"
          },
          "type": "graph",
          "xaxis": {
            "buckets": null,
            "mode": "time",
            "name": null,
            "show": true,
            "values": []
          },
          "yaxes": [
            {
              "format": "percentunit",
              "label": "Saturation %",
              "logBase": 1,
              "max": 1,
              "min": null,
              "show": true
            },
            {
              "format": "short",
              "label": null,
              "logBase": 1,
              "max": 1,
              "min": 0,
              "show": false
            }
          ]
        },
        {
          "aliasColors": {},
          "bars": false,
          "dashLength": 10,
          "dashes": false,
          "datasource": "$PROMETHEUS_DS",
          "decimals": 2,
          "description": "Measures the amount of scheduler waiting time that processes are waiting\nto be scheduled, according to [`CPU Scheduling Metrics`](https://www.robustperception.io/cpu-scheduling-metrics-from-the-node-exporter).\n\nA high value indicates that a node has more processes to be run than CPU time available\nto handle them, and may lead to degraded responsiveness and performance from the application.\n\nAdditionally, it may indicate that the fleet is under-provisioned.\n Lower is better.",
          "fill": 0,
          "fillGradient": 0,
          "gridPos": {
            "h": 10,
            "w": 12,
            "x": 0,
            "y": 30
          },
          "id": 1415313189,
          "legend": {
            "alignAsTable": true,
            "avg": true,
            "current": true,
            "hideEmpty": true,
            "max": true,
            "min": true,
            "rightSide": false,
            "show": true,
            "sideWidth": null,
            "total": false,
            "values": true
          },
          "lines": true,
          "linewidth": 1,
          "links": [],
          "nullPointMode": "null",
          "percentage": false,
          "pointradius": 5,
          "points": false,
          "renderer": "flot",
          "repeat": null,
          "seriesOverrides": [
            {
              "alias": "/^Soft SLO/",
              "color": "#FF4500",
              "dashLength": 4,
              "dashes": true,
              "legend": true,
              "lines": true,
              "linewidth": 2,
              "nullPointMode": "connected",
              "spaceLength": 10,
              "zindex": -2
            },
            {
              "alias": "/^Hard SLO/",
              "color": "#F2495C",
              "dashLength": 4,
              "dashes": true,
              "legend": true,
              "lines": true,
              "linewidth": 4,
              "nullPointMode": "connected",
              "spaceLength": 4,
              "zindex": -2
            },
            {
              "alias": "/aggregated /",
              "color": "#E7D551",
              "linewidth": 2,
              "zindex": 3
            },
            {
              "alias": "/^95th quantile for week/",
              "color": "#37872D",
              "dashLength": 4,
              "dashes": true,
              "legend": true,
              "lines": true,
              "linewidth": 1,
              "nullPointMode": "connected",
              "spaceLength": 10,
              "zindex": -2
            },
            {
              "alias": "/^99th quantile for week/",
              "color": "#56A64B",
              "dashLength": 4,
              "dashes": true,
              "legend": true,
              "lines": true,
              "linewidth": 2,
              "nullPointMode": "connected",
              "spaceLength": 4,
              "zindex": -2
            }
          ],
          "spaceLength": 10,
          "stableId": "saturation-node_schedstat_waiting",
          "stack": false,
          "steppedLine": false,
          "targets": [
            {
              "expr": "clamp_min(\n  clamp_max(\n    max by(type, fqdn, shard) (\n  clamp_min(\n    clamp_max(\n      avg without (cpu) (rate(node_schedstat_waiting_seconds_total{type=\"consul\"}[1h]))\n      ,\n      1)\n  ,\n  0)\n)\n\n  ,1)\n,0)\n",
              "format": "time_series",
              "interval": "1m",
              "intervalFactor": 3,
              "legendFormat": "{{ fqdn }} {{ shard }}",
              "refId": "A"
            },
            {
              "expr": "clamp_min(\n  clamp_max(\n    max(\n      max_over_time(gitlab_component_saturation:ratio{type=\"consul\", component=\"node_schedstat_waiting\"}[$__interval])\n    ) by (component)\n  ,1)\n,0)\n",
              "format": "time_series",
              "interval": "1m",
              "intervalFactor": 3,
              "legendFormat": "aggregated {{ component }}",
              "refId": "B"
            },
            {
              "expr": "gitlab_component_saturation:ratio_quantile95_1w{type=\"consul\", component=\"node_schedstat_waiting\"}\n",
              "format": "time_series",
              "interval": "1m",
              "intervalFactor": 3,
              "legendFormat": "95th quantile for week {{ component }}",
              "refId": "C"
            },
            {
              "expr": "gitlab_component_saturation:ratio_quantile99_1w{type=\"consul\", component=\"node_schedstat_waiting\"}\n",
              "format": "time_series",
              "interval": "1m",
              "intervalFactor": 3,
              "legendFormat": "99th quantile for week {{ component }}",
              "refId": "D"
            },
            {
              "expr": "avg(slo:max:soft:gitlab_component_saturation:ratio{component=\"node_schedstat_waiting\"}) by (component)\n",
              "format": "time_series",
              "interval": "1m",
              "intervalFactor": 3,
              "legendFormat": "Soft SLO: {{ component }}",
              "refId": "E"
            },
            {
              "expr": "avg(slo:max:hard:gitlab_component_saturation:ratio{component=\"node_schedstat_waiting\"}) by (component)\n",
              "format": "time_series",
              "interval": "1m",
              "intervalFactor": 3,
              "legendFormat": "Hard SLO: {{ component }}",
              "refId": "F"
            }
          ],
          "thresholds": [],
          "timeFrom": null,
          "timeShift": null,
          "title": "node_schedstat_waiting component saturation: Node Scheduler Waiting Time",
          "tooltip": {
            "shared": true,
            "sort": 2,
            "value_type": "individual"
          },
          "type": "graph",
          "xaxis": {
            "buckets": null,
            "mode": "time",
            "name": null,
            "show": true,
            "values": []
          },
          "yaxes": [
            {
              "format": "percentunit",
              "label": "Saturation %",
              "logBase": 1,
              "max": 1,
              "min": null,
              "show": true
            },
            {
              "format": "short",
              "label": null,
              "logBase": 1,
              "max": 1,
              "min": 0,
              "show": false
            }
          ]
        },
        {
          "aliasColors": {},
          "bars": false,
          "dashLength": 10,
          "dashes": false,
          "datasource": "$PROMETHEUS_DS",
          "decimals": 2,
          "description": "Average CPU utilization per Node.\n\nIf average CPU is saturated, it may indicate that a fleet is in need to horizontal or vertical scaling. It may also indicate\nimbalances in load in a fleet.\n Lower is better.",
          "fill": 0,
          "fillGradient": 0,
          "gridPos": {
            "h": 10,
            "w": 12,
            "x": 12,
            "y": 30
          },
          "id": 3372411356,
          "legend": {
            "alignAsTable": true,
            "avg": true,
            "current": true,
            "hideEmpty": true,
            "max": true,
            "min": true,
            "rightSide": false,
            "show": true,
            "sideWidth": null,
            "total": false,
            "values": true
          },
          "lines": true,
          "linewidth": 1,
          "links": [],
          "nullPointMode": "null",
          "percentage": false,
          "pointradius": 5,
          "points": false,
          "renderer": "flot",
          "repeat": null,
          "seriesOverrides": [
            {
              "alias": "/^Soft SLO/",
              "color": "#FF4500",
              "dashLength": 4,
              "dashes": true,
              "legend": true,
              "lines": true,
              "linewidth": 2,
              "nullPointMode": "connected",
              "spaceLength": 10,
              "zindex": -2
            },
            {
              "alias": "/^Hard SLO/",
              "color": "#F2495C",
              "dashLength": 4,
              "dashes": true,
              "legend": true,
              "lines": true,
              "linewidth": 4,
              "nullPointMode": "connected",
              "spaceLength": 4,
              "zindex": -2
            },
            {
              "alias": "/aggregated /",
              "color": "#E7D551",
              "linewidth": 2,
              "zindex": 3
            },
            {
              "alias": "/^95th quantile for week/",
              "color": "#37872D",
              "dashLength": 4,
              "dashes": true,
              "legend": true,
              "lines": true,
              "linewidth": 1,
              "nullPointMode": "connected",
              "spaceLength": 10,
              "zindex": -2
            },
            {
              "alias": "/^99th quantile for week/",
              "color": "#56A64B",
              "dashLength": 4,
              "dashes": true,
              "legend": true,
              "lines": true,
              "linewidth": 2,
              "nullPointMode": "connected",
              "spaceLength": 4,
              "zindex": -2
            }
          ],
          "spaceLength": 10,
          "stableId": "saturation-single_node_cpu",
          "stack": false,
          "steppedLine": false,
          "targets": [
            {
              "expr": "clamp_min(\n  clamp_max(\n    max by(type, node) (\n  clamp_min(\n    clamp_max(\n      avg without(cpu, mode) (1 - rate(node_cpu_seconds_total{mode=\"idle\", type=\"consul\"}[5m]))\n      ,\n      1)\n  ,\n  0)\n)\n\n  ,1)\n,0)\n",
              "format": "time_series",
              "interval": "1m",
              "intervalFactor": 3,
              "legendFormat": "{{ node }}",
              "refId": "A"
            },
            {
              "expr": "clamp_min(\n  clamp_max(\n    max(\n      max_over_time(gitlab_component_saturation:ratio{type=\"consul\", component=\"single_node_cpu\"}[$__interval])\n    ) by (component)\n  ,1)\n,0)\n",
              "format": "time_series",
              "interval": "1m",
              "intervalFactor": 3,
              "legendFormat": "aggregated {{ component }}",
              "refId": "B"
            },
            {
              "expr": "gitlab_component_saturation:ratio_quantile95_1w{type=\"consul\", component=\"single_node_cpu\"}\n",
              "format": "time_series",
              "interval": "1m",
              "intervalFactor": 3,
              "legendFormat": "95th quantile for week {{ component }}",
              "refId": "C"
            },
            {
              "expr": "gitlab_component_saturation:ratio_quantile99_1w{type=\"consul\", component=\"single_node_cpu\"}\n",
              "format": "time_series",
              "interval": "1m",
              "intervalFactor": 3,
              "legendFormat": "99th quantile for week {{ component }}",
              "refId": "D"
            },
            {
              "expr": "avg(slo:max:soft:gitlab_component_saturation:ratio{component=\"single_node_cpu\"}) by (component)\n",
              "format": "time_series",
              "interval": "1m",
              "intervalFactor": 3,
              "legendFormat": "Soft SLO: {{ component }}",
              "refId": "E"
            },
            {
              "expr": "avg(slo:max:hard:gitlab_component_saturation:ratio{component=\"single_node_cpu\"}) by (component)\n",
              "format": "time_series",
              "interval": "1m",
              "intervalFactor": 3,
              "legendFormat": "Hard SLO: {{ component }}",
              "refId": "F"
            }
          ],
          "thresholds": [],
          "timeFrom": null,
          "timeShift": null,
          "title": "single_node_cpu component saturation: Average CPU Utilization per Node",
          "tooltip": {
            "shared": true,
            "sort": 2,
            "value_type": "individual"
          },
          "type": "graph",
          "xaxis": {
            "buckets": null,
            "mode": "time",
            "name": null,
            "show": true,
            "values": []
          },
          "yaxes": [
            {
              "format": "percentunit",
              "label": "Saturation %",
              "logBase": 1,
              "max": 1,
              "min": null,
              "show": true
            },
            {
              "format": "short",
              "label": null,
              "logBase": 1,
              "max": 1,
              "min": 0,
              "show": false
            }
          ]
        }
      ],
      "repeat": null,
      "repeatIteration": null,
      "repeatRowId": null,
      "showTitle": true,
      "title": "🌡 Saturation Details",
      "titleSize": "h6",
      "type": "row"
    },
    {
      "content": "Made with ❤️ and [Grafonnet](https://github.com/grafana/grafonnet-lib). [Contribute to this dashboard on GitLab.com](https://gitlab.com/gitlab-com/runbooks/blob/master/dashboards)\n",
      "datasource": null,
      "gridPos": {
        "h": 2,
        "w": 24,
        "x": 0,
        "y": 110000
      },
      "id": 14,
      "mode": "markdown",
      "title": "Source",
      "type": "text"
    }
  ],
  "refresh": "",
  "rows": [],
  "schemaVersion": 16,
  "style": "light",
  "tags": [
    "gitlab",
    "type:consul",
    "consul",
    "service overview"
  ],
  "templating": {
    "list": [
      {
        "current": {
          "text": "default",
          "value": "default"
        },
        "hide": 0,
        "label": null,
        "name": "PROMETHEUS_DS",
        "options": [],
        "query": "prometheus",
        "refresh": 1,
        "regex": "",
        "type": "datasource"
      }
    ]
  },
  "time": {
    "from": "now-6h/m",
    "to": "now/m"
  },
  "timepicker": {
    "refresh_intervals": [
      "1m",
      "5m",
      "10m",
      "15m",
      "30m"
    ],
    "time_options": [
      "5m",
      "15m",
      "1h",
      "6h",
      "12h",
      "24h",
      "2d",
      "7d",
      "30d"
    ]
  },
  "timezone": "utc",
  "title": "consul Service Overview",
  "uid": "consul-main",
  "version": 0
}